@@@@@@@@@@@@@@@@@@@@@@@@@@@@@@@@@@@@@@@@@@@@@@@@@@
@@@**********************@**********************@@
@@&&@@%***********@@@@@@*@%@@@@*@@@@@@@@@@@@@@@(@@
@@&&@@%*@@@@@@@@@@@*@@@@*@%@@@@*@@@@@@@@@@@@@@@(@@
@@&&@@%*@@@@@@@@@@@*%@@@*@%@@@@*@@@@@@@@@@@@@@@(@@
@@&&@@%*@@@@@@@@/**@@@@@*@%@@@@*@@@@@@@@@@@@@@@(@@
@@&&@@%*@@@@@@@@@@**@@@@*@%@@@@*@@@@@@@@@@@@@@@(@@
@@&&@@%*@@@@@@@@@@@@*@@@*@%@@@@*@@@@@@@@@@@@@@@(@@
@@&&@@%*@@@@@@@@@@@**@@@*@%@@@@*@@@@@@@@@@@@@@@(@@
@@&&@@%*********,(@@@@@@*@%@@@@************@@@@(@@
@@@@@@@@@@@@@@@@@@@@@@@@@@@@@@@@@@@@@@@@@@@@@@@@@@
@@&&@@@/***********,*@@@*@%@@/**********@@@@@@@(@@
@@&&@@@@@@@@@@@@@@*@@@@@*@%@@/*@@@@@@@@@@/*@@@@(@@
@@&&@@@@@@@@@@@@*#@@@@@@*@%@@/*@@@@@@@@@@@/*@@@(@@
@@&&@@@@@@@@@@**@@@@@@@@*@%@@/*@@@@@@@@@@@**@@@(@@
@@&&@@@@@@@@/,@@@@@@@@@@*@%@@/*%%%%%%%#***@@@@@(@@
@@&&@@@@@@@*@@@@@@@@@@@@*@%@@/*@@@@@@**@@@@@@@@(@@
@@&&@@@@@*@@@@@@@@@@@@@@*@%@@/*@@@@@@@@/*@@@@@@(@@
@@&&@@@**************@@@*@%@@/*@@@@@@@@@@&*%@@@(@@
@@&**********************@**********************@@
                           

As of June 2024 :
* New brain-like Transistor Mimics Human Intelligence
* Microsoft Executive Emails Hacked by Russian Intelligence Group
* Tech Still Isn’t Doing Enough to Care for the Environment
* World’s first major act to regulate AI passed by European lawmakers
* The Next Frontier for Brain Implants Is Artificial Vision
* Artificial Blood Platelets developed
* A new day, a new update on AI

everyone:
    be kind to everyone; it doesn't take much effort
    don't go around kicking robots, or other humans
    look at faces and not screens (particularly wearable ones)
    instagram likes makes 0 sense

readers:
    you acknowledge that you are an organic being
    you are free to have independent opinions
    you are given rights to link contents of this blog into yours
    you accept that you will follow clauses in [everyone] section

potential HR & founders:
    why are you here? what made you stumble into this page?
    I am always open for job and freelance opportunities
    feel free to contact me : https://blzr.sbs/contact/
